…
### Let’s execute the query

``` r
space <- "2021-02-17-Trickbot-gtag-rob13-infection-in-AD-environment.pcap"

r1 <- brim_search(space, zql1)

r1
## ZQL query took 0.0000 seconds; 384 records matched; 1,082 records read; 238,052 bytes read

(r1 <- as_tibble(tidy_brim(r1)))
## # A tibble: 74 x 4
##    orig_h      resp_h       resp_p count
##    <chr>       <chr>        <chr>  <int>
##  1 10.2.17.2   10.2.17.101  49787      1
##  2 10.2.17.101 3.222.126.94 80         1
##  3 10.2.17.101 10.2.17.1    445        1
##  4 10.2.17.101 10.2.17.2    53        97
##  5 10.2.17.101 10.2.17.2    88        27
##  6 10.2.17.101 10.2.17.2    123        5
##  7 10.2.17.101 10.2.17.2    135        8
##  8 10.2.17.101 10.2.17.2    137        2
##  9 10.2.17.101 10.2.17.2    138        2
## 10 10.2.17.101 10.2.17.2    389       37
## # … with 64 more rows
```

### Let’s try one that processes the Suricata alerts

``` r
# Z query to fetch Suricata alerts including the count of alerts per source:destination 
zql2 <- "event_type=alert | count() by src_ip, dest_ip, dest_port, alert.severity, alert.signature | sort src_ip, dest_ip, dest_port, alert.severity, alert.signature"

r2 <- brim_search(space, zql2)

r2
## ZQL query took 0.0000 seconds; 47 records matched; 870 records read; 238,660 bytes read

(r2 <- (as_tibble(tidy_brim(r2))))
## # A tibble: 35 x 6
##    src_ip     dest_ip    dest_port severity signature                                                              count
##    <chr>      <chr>          <int>    <int> <chr>                                                                  <int>
##  1 10.2.17.2  10.2.17.1…     49674        3 SURICATA Applayer Detect protocol only one direction                       1
##  2 10.2.17.2  10.2.17.1…     49680        3 SURICATA Applayer Detect protocol only one direction                       1
##  3 10.2.17.2  10.2.17.1…     49687        3 SURICATA Applayer Detect protocol only one direction                       1
##  4 10.2.17.2  10.2.17.1…     49704        3 SURICATA Applayer Detect protocol only one direction                       1
##  5 10.2.17.2  10.2.17.1…     49709        3 SURICATA Applayer Detect protocol only one direction                       1
##  6 10.2.17.2  10.2.17.1…     49721        3 SURICATA Applayer Detect protocol only one direction                       1
##  7 10.2.17.2  10.2.17.1…     50126        3 SURICATA Applayer Detect protocol only one direction                       1
##  8 10.2.17.1… 3.222.126…        80        2 ET POLICY curl User-Agent Outbound                                         1
##  9 10.2.17.1… 36.95.27.…       443        1 ET HUNTING Suspicious POST with Common Windows Process Names - Possib…     1
## 10 10.2.17.1… 36.95.27.…       443        1 ET MALWARE Win32/Trickbot Data Exfiltration                                1
## # … with 25 more rows
```
…
